module g06-food-service

go 1.17

require (
	github.com/aws/aws-sdk-go v1.44.51
	github.com/btcsuite/btcutil v1.0.2
	github.com/dgrijalva/jwt-go v3.2.0+incompatible
	github.com/gin-gonic/gin v1.8.1
	github.com/joho/godotenv v1.4.0
	github.com/mattn/go-colorable v0.1.12
	github.com/sirupsen/logrus v1.9.0
	google.golang.org/grpc v1.48.0
	google.golang.org/protobuf v1.28.1
	gorm.io/driver/mysql v1.3.6
	gorm.io/gorm v1.23.8

)

require (
	github.com/gin-contrib/sse v0.1.0 // indirect
	github.com/go-playground/locales v0.14.0 // indirect
	github.com/go-playground/universal-translator v0.18.0 // indirect
	github.com/go-playground/validator/v10 v10.11.0 // indirect
	github.com/go-sql-driver/mysql v1.6.0 // indirect
	github.com/goccy/go-json v0.9.10 // indirect
	github.com/golang/protobuf v1.5.2 // indirect
	github.com/google/go-cmp v0.5.8 // indirect
	github.com/jinzhu/inflection v1.0.0 // indirect
	github.com/jinzhu/now v1.1.5 // indirect
	github.com/jmespath/go-jmespath v0.4.0 // indirect
	github.com/json-iterator/go v1.1.12 // indirect
	github.com/leodido/go-urn v1.2.1 // indirect
	github.com/mattn/go-isatty v0.0.16 // indirect
	github.com/modern-go/concurrent v0.0.0-20180306012644-bacd9c7ef1dd // indirect
	github.com/modern-go/reflect2 v1.0.2 // indirect
	github.com/pelletier/go-toml/v2 v2.0.3 // indirect
	github.com/ugorji/go/codec v1.2.7 // indirect
	golang.org/x/crypto v0.0.0-20220722155217-630584e8d5aa // indirect
	golang.org/x/net v0.0.0-20220812174116-3211cb980234 // indirect
	golang.org/x/sys v0.0.0-20220811171246-fbc7d0a398ab // indirect
	golang.org/x/text v0.3.7 // indirect
	google.golang.org/genproto v0.0.0-20220805133916-01dd62135a58 // indirect
	gopkg.in/yaml.v2 v2.4.0 // indirect
)
